{
    "images": [
        {
            "id": 31354013,
            "name": "6.9 x32",
            "distribution": "CentOS",
            "slug": "centos-6-x32",
            "public": true,
            "regions": [
                "nyc1",
                "sfo1",
                "nyc2",
                "ams2",
                "sgp1",
                "lon1",
                "nyc3",
                "ams3",
                "fra1",
                "tor1",
                "sfo2",
                "blr1",
                "sfo3"
            ],
            "created_at": "2018-01-30T12:26:21Z",
            "min_disk_size": 20,
            "type": "snapshot",
            "size_gigabytes": 0.33,
            "description": "Centos 6.9 x32 20180130",
            "tags": [],
            "status": "available",
            "error_message": ""
        },
        {
            "id": 34902021,
            "name": "6.9 x64",
            "distribution": "CentOS",
            "slug": "centos-6-x64",
            "public": true,
            "regions": [
                "nyc1",
                "sfo1",
                "nyc2",
                "ams2",
                "sgp1",
                "lon1",
                "nyc3",
                "ams3",
                "fra1",
                "tor1",
                "sfo2",
                "blr1",
                "sfo3"
            ],
            "created_at": "2018-06-02T00:21:33Z",
            "min_disk_size": 20,
            "type": "snapshot",
            "size_gigabytes": 0.35,
            "description": "Centos 6.9 x64 20180602",
            "tags": [],
            "status": "available",
            "error_message": ""
        },
        {
            "id": 47384041,
            "name": "30 x64",
            "distribution": "Fedora",
            "slug": "fedora-30-x64",
            "public": true,
            "regions": [
                "nyc1",
                "sfo1",
                "nyc2",
                "ams2",
                "sgp1",
                "lon1",
                "nyc3",
                "ams3",
                "fra1",
                "tor1",
                "sfo2",
                "blr1",
                "sfo3"
            ],
            "created_at": "2019-05-20T16:21:32Z",
            "min_disk_size": 20,
            "type": "snapshot",
            "size_gigabytes": 0.33,
            "description": "30 x64",
            "tags": [],
            "status": "available",
            "error_message": ""
        },
        {
            "id": 50903182,
            "name": "7.6 x64",
            "distribution": "CentOS",
            "slug": "centos-7-x64",
            "public": true,
            "regions": [
                "nyc1",
                "sfo1",
                "nyc2",
                "ams2",
                "sgp1",
                "lon1",
                "nyc3",
                "ams3",
                "fra1",
                "tor1",
                "sfo2",
                "blr1",
                "sfo3"
            ],
            "created_at": "2019-08-14T17:00:31Z",
            "min_disk_size": 20,
            "type": "snapshot",
            "size_gigabytes": 0.43,
            "description": "7.6 x64",
            "tags": [],
            "status": "available",
            "error_message": ""
        },
        {
            "id": 53893572,
            "name": "18.04.3 (LTS) x64",
            "distribution": "Ubuntu",
            "slug": "ubuntu-18-04-x64",
            "public": true,
            "regions": [
                "nyc1",
                "sfo1",
                "nyc2",
                "ams2",
                "sgp1",
                "lon1",
                "nyc3",
                "ams3",
                "fra1",
                "tor1",
                "sfo2",
                "blr1",
                "sfo3"
            ],
            "created_at": "2019-10-22T01:38:19Z",
            "min_disk_size": 20,
            "type": "snapshot",
            "size_gigabytes": 2.36,
            "description": "Ubuntu 18.04 x64 20191022",
            "tags": [],
            "status": "available",
            "error_message": ""
        },
        {
            "id": 54203610,
            "name": "16.04.6 (LTS) x32",
            "distribution": "Ubuntu",
            "slug": "ubuntu-16-04-x32",
            "public": true,
            "regions": [
                "nyc1",
                "sfo1",
                "nyc2",
                "ams2",
                "sgp1",
                "lon1",
                "nyc3",
                "ams3",
                "fra1",
                "tor1",
                "sfo2",
                "blr1",
                "sfo3"
            ],
            "created_at": "2019-10-29T00:04:01Z",
            "min_disk_size": 20,
            "type": "snapshot",
            "size_gigabytes": 2.36,
            "description": "Ubuntu 16.04.6 x32 20191029",
            "tags": [],
            "status": "available",
            "error_message": ""
        },
        {
            "id": 55022766,
            "name": "16.04.6 (LTS) x64",
            "distribution": "Ubuntu",
            "slug": "ubuntu-16-04-x64",
            "public": true,
            "regions": [
                "nyc1",
                "sfo1",
                "nyc2",
                "ams2",
                "sgp1",
                "lon1",
                "nyc3",
                "ams3",
                "fra1",
                "tor1",
                "sfo2",
                "blr1",
                "sfo3"
            ],
            "created_at": "2019-11-16T01:42:26Z",
            "min_disk_size": 20,
            "type": "snapshot",
            "size_gigabytes": 2.36,
            "description": "Ubuntu 16.04.6 x64 20191116",
            "tags": [],
            "status": "available",
            "error_message": ""
        },
        {
            "id": 56521921,
            "name": "31 x64",
            "distribution": "Fedora",
            "slug": "fedora-31-x64",
            "public": true,
            "regions": [
                "nyc1",
                "sfo1",
                "nyc2",
                "ams2",
                "sgp1",
                "lon1",
                "nyc3",
                "ams3",
                "fra1",
                "tor1",
                "sfo2",
                "blr1",
                "sfo3"
            ],
            "created_at": "2019-12-18T17:29:14Z",
            "min_disk_size": 20,
            "type": "snapshot",
            "size_gigabytes": 4.29,
            "description": "31 x64",
            "tags": [],
            "status": "available",
            "error_message": ""
        },
        {
            "id": 59416024,
            "name": "12.1 x64 ufs",
            "distribution": "FreeBSD",
            "slug": "freebsd-12-x64",
            "public": true,
            "regions": [
                "nyc1",
                "sfo1",
                "nyc2",
                "ams2",
                "sgp1",
                "lon1",
                "nyc3",
                "ams3",
                "fra1",
                "tor1",
                "sfo2",
                "blr1",
                "sfo3"
            ],
            "created_at": "2020-02-18T22:06:39Z",
            "min_disk_size": 20,
            "type": "snapshot",
            "size_gigabytes": 20.97,
            "description": "Freebsd freebsd-12-1 x64 20200218 ufs",
            "tags": [],
            "status": "available",
            "error_message": ""
        },
        {
            "id": 59417005,
            "name": "12.1 x64 zfs",
            "distribution": "FreeBSD",
            "slug": "freebsd-12-x64-zfs",
            "public": true,
            "regions": [
                "nyc1",
                "sfo1",
                "nyc2",
                "ams2",
                "sgp1",
                "lon1",
                "nyc3",
                "ams3",
                "fra1",
                "tor1",
                "sfo2",
                "blr1",
                "sfo3"
            ],
            "created_at": "2020-02-18T22:33:20Z",
            "min_disk_size": 20,
            "type": "snapshot",
            "size_gigabytes": 20.97,
            "description": "Freebsd freebsd-12-1 x64 20200218 zfs",
            "tags": [],
            "status": "available",
            "error_message": ""
        },
        {
            "id": 59418769,
            "name": "11.3 x64 ufs",
            "distribution": "FreeBSD",
            "slug": null,
            "public": true,
            "regions": [
                "nyc1",
                "sfo1",
                "nyc2",
                "ams2",
                "sgp1",
                "lon1",
                "nyc3",
                "ams3",
                "fra1",
                "tor1",
                "sfo2",
                "blr1",
                "sfo3"
            ],
            "created_at": "2020-02-18T23:13:44Z",
            "min_disk_size": 20,
            "type": "snapshot",
            "size_gigabytes": 20.97,
            "description": "Freebsd freebsd-11-3 x64 20200218 ufs",
            "tags": [],
            "status": "available",
            "error_message": ""
        },
        {
            "id": 59418853,
            "name": "11.3 x64 zfs",
            "distribution": "FreeBSD",
            "slug": null,
            "public": true,
            "regions": [
                "nyc1",
                "sfo1",
                "nyc2",
                "ams2",
                "sgp1",
                "lon1",
                "nyc3",
                "ams3",
                "fra1",
                "tor1",
                "sfo2",
                "blr1",
                "sfo3"
            ],
            "created_at": "2020-02-18T23:16:30Z",
            "min_disk_size": 20,
            "type": "snapshot",
            "size_gigabytes": 20.97,
            "description": "Freebsd freebsd-11-3 x64 20200218 zfs",
            "tags": [],
            "status": "available",
            "error_message": ""
        },
        {
            "id": 60461760,
            "name": "10.3 x64",
            "distribution": "Debian",
            "slug": "debian-10-x64",
            "public": true,
            "regions": [
                "nyc1",
                "sfo1",
                "nyc2",
                "ams2",
                "sgp1",
                "lon1",
                "nyc3",
                "ams3",
                "fra1",
                "tor1",
                "sfo2",
                "blr1",
                "sfo3"
            ],
            "created_at": "2020-03-11T16:13:29Z",
            "min_disk_size": 20,
            "type": "snapshot",
            "size_gigabytes": 2.15,
            "description": "Debian debian-10 x64 20200311",
            "tags": [],
            "status": "available",
            "error_message": ""
        },
        {
            "id": 60463541,
            "name": "9.12 x64",
            "distribution": "Debian",
            "slug": "debian-9-x64",
            "public": true,
            "regions": [
                "nyc1",
                "sfo1",
                "nyc2",
                "ams2",
                "sgp1",
                "lon1",
                "nyc3",
                "ams3",
                "fra1",
                "tor1",
                "sfo2",
                "blr1",
                "sfo3"
            ],
            "created_at": "2020-03-11T18:00:38Z",
            "min_disk_size": 20,
            "type": "snapshot",
            "size_gigabytes": 2.15,
            "description": "Debian 9.12 x64 20200311",
            "tags": [],
            "status": "available",
            "error_message": ""
        },
        {
            "id": 62823611,
            "name": "32 x64",
            "distribution": "Fedora",
            "slug": "fedora-32-x64",
            "public": true,
            "regions": [
                "nyc1",
                "sfo1",
                "nyc2",
                "ams2",
                "sgp1",
                "lon1",
                "nyc3",
                "ams3",
                "fra1",
                "tor1",
                "sfo2",
                "blr1",
                "sfo3"
            ],
            "created_at": "2020-04-28T18:14:02Z",
            "min_disk_size": 20,
            "type": "snapshot",
            "size_gigabytes": 4.29,
            "description": "32 x64",
            "tags": [],
            "status": "available",
            "error_message": ""
        },
        {
            "id": 65416372,
            "name": "v1.5.6",
            "distribution": "RancherOS",
            "slug": "rancheros",
            "public": true,
            "regions": [
                "nyc1",
                "sfo1",
                "nyc2",
                "ams2",
                "sgp1",
                "lon1",
                "nyc3",
                "ams3",
                "fra1",
                "tor1",
                "sfo2",
                "blr1",
                "sfo3"
            ],
            "created_at": "2020-06-18T21:03:14Z",
            "min_disk_size": 20,
            "type": "snapshot",
            "size_gigabytes": 10.74,
            "description": "RancherOS Release",
            "tags": [],
            "status": "available",
            "error_message": ""
        },
        {
            "id": 65619134,
            "name": "8.2 x64",
            "distribution": "CentOS",
            "slug": "centos-8-x64",
            "public": true,
            "regions": [
                "nyc1",
                "sfo1",
                "nyc2",
                "ams2",
                "sgp1",
                "lon1",
                "nyc3",
                "ams3",
                "fra1",
                "tor1",
                "sfo2",
                "blr1",
                "sfo3"
            ],
            "created_at": "2020-06-22T19:51:36Z",
            "min_disk_size": 20,
            "type": "snapshot",
            "size_gigabytes": 10.74,
            "description": "CentOS 8.2 x64",
            "tags": [],
            "status": "available",
            "error_message": ""
        },
        {
            "id": 67208401,
            "name": "11.4 x64 ufs",
            "distribution": "FreeBSD",
            "slug": "freebsd-11-x64-ufs",
            "public": true,
            "regions": [
                "nyc1",
                "sfo1",
                "nyc2",
                "ams2",
                "sgp1",
                "lon1",
                "nyc3",
                "ams3",
                "fra1",
                "tor1",
                "sfo2",
                "blr1",
                "sfo3"
            ],
            "created_at": "2020-07-22T22:59:10Z",
            "min_disk_size": 20,
            "type": "snapshot",
            "size_gigabytes": 20.97,
            "description": "FreeBSD 11.4 UFS",
            "tags": [],
            "status": "available",
            "error_message": ""
        },
        {
            "id": 67209080,
            "name": "11.4 x64 zfs",
            "distribution": "FreeBSD",
            "slug": "freebsd-11-x64-zfs",
            "public": true,
            "regions": [
                "nyc1",
                "sfo1",
                "nyc2",
                "ams2",
                "sgp1",
                "lon1",
                "nyc3",
                "ams3",
                "fra1",
                "tor1",
                "sfo2",
                "blr1",
                "sfo3"
            ],
            "created_at": "2020-07-22T23:07:51Z",
            "min_disk_size": 20,
            "type": "snapshot",
            "size_gigabytes": 20.97,
            "description": "FreeBSD 11.4 ZFS",
            "tags": [],
            "status": "available",
            "error_message": ""
        },
        {
            "id": 68357995,
            "name": "20.04 (LTS) x64",
            "distribution": "Ubuntu",
            "slug": "ubuntu-20-04-x64",
            "public": true,
            "regions": [
                "nyc1",
                "sfo1",
                "nyc2",
                "ams2",
                "sgp1",
                "lon1",
                "nyc3",
                "ams3",
                "fra1",
                "tor1",
                "sfo2",
                "blr1",
                "sfo3"
            ],
            "created_at": "2020-08-13T15:35:15Z",
            "min_disk_size": 20,
            "type": "snapshot",
            "size_gigabytes": 2.36,
            "description": "Ubuntu 20.04 x86",
            "tags": [],
            "status": "available",
            "error_message": ""
        }
    ],
    "links": {
        "pages": {
            "last": "https://api.digitalocean.com/v2/images?page=10",
            "next": "https://api.digitalocean.com/v2/images?page=2"
        }
    },
    "meta": {
        "total": 184
    }
}